ARIMA NOTE
…
Code

residuals_fit

# A tsibble: 31 x 3 [1h]
# Key:       .model [1]
   .model           lag      acf
   <chr>       <cf_lag>    <dbl>
 1 arima_fable       1h -0.0360 
 2 arima_fable       2h -0.0137 
 3 arima_fable       3h  0.00254
 4 arima_fable       4h  0.0528 
 5 arima_fable       5h -0.0109 
 6 arima_fable       6h -0.00159
 7 arima_fable       7h -0.0163 
 8 arima_fable       8h -0.0121 
 9 arima_fable       9h -0.0181 
10 arima_fable      10h -0.0132 
# ℹ 21 more rows

Code

residuals_fit_2

# A tsibble: 31 x 3 [1h]
# Key:       .model [1]
   .model       lag       acf
   <chr>   <cf_lag>     <dbl>
 1 ARIMA_2       1h -0.0423  
 2 ARIMA_2       2h -0.0527  
 3 ARIMA_2       3h  0.0189  
 4 ARIMA_2       4h  0.0256  
 5 ARIMA_2       5h  0.00216 
 6 ARIMA_2       6h  0.0119  
 7 ARIMA_2       7h -0.00135 
 8 ARIMA_2       8h  0.000177
 9 ARIMA_2       9h -0.00464 
10 ARIMA_2      10h  0.000659
# ℹ 21 more rows
…
