Bayesian Analysis with brms
…
out_mu <- spread_draws(fit_brms, r_study[study,term], b_Intercept) %>%
           mutate(study = "mu") %>%
           mutate(Intercept = b_Intercept) %>%
           select(study,term,Intercept)

out_all <- bind_rows(out_indiv, out_mu) %>%
            mutate(study = factor(study))

out_all %>% ungroup() %>%
  # tidybayes garbles names so fix here
  mutate(study = str_replace_all(study, "\\.", " "))

# A tibble: 64,000 × 3
   study term      Intercept
   <chr> <chr>         <dbl>
 1 154   Intercept     0.322
 2 154   Intercept     0.254
 3 154   Intercept     0.322
 4 154   Intercept     0.227
 5 154   Intercept     0.149
 6 154   Intercept     0.309
 7 154   Intercept     0.176
 8 154   Intercept     0.258
 9 154   Intercept     0.253
10 154   Intercept     0.153
# ℹ 63,990 more rows
…
